<?xml version="1.0" encoding="UTF-8"?><svg xmlns="http://www.w3.org/2000/svg" xmlns:xlink="http://www.w3.org/1999/xlink" stroke-dasharray="none" shape-rendering="auto" font-family="'Dialog'" width="885" text-rendering="auto" fill-opacity="1" contentScriptType="text/ecmascript" color-interpolation="auto" color-rendering="auto" preserveAspectRatio="xMidYMid meet" font-size="12" viewBox="0 0 885 683" fill="black" stroke="black" image-rendering="auto" stroke-miterlimit="10" zoomAndPan="magnify" version="1.0" stroke-linecap="square" stroke-linejoin="miter" contentStyleType="text/css" font-style="normal" height="683" stroke-width="1" stroke-dashoffset="0" font-weight="normal" stroke-opacity="1">
<!--Generated by the Batik Graphics2D SVG Generator-->
<defs id="genericDefs"/>
<g>
<defs id="defs1">
<linearGradient x1="120" x2="120" y1="79" gradientUnits="userSpaceOnUse" y2="182" xlink:type="simple" xlink:actuate="onLoad" id="linearGradient1" xlink:show="other" spreadMethod="pad">
<stop stop-opacity="1" stop-color="white" offset="0%"/>
<stop stop-opacity="1" stop-color="rgb(195,215,221)" offset="100%"/>
</linearGradient>
<linearGradient x1="672" x2="672" y1="95" gradientUnits="userSpaceOnUse" y2="198" xlink:type="simple" xlink:actuate="onLoad" id="linearGradient2" xlink:show="other" spreadMethod="pad">
<stop stop-opacity="1" stop-color="white" offset="0%"/>
<stop stop-opacity="1" stop-color="rgb(195,215,221)" offset="100%"/>
</linearGradient>
<linearGradient x1="272" x2="272" y1="307" gradientUnits="userSpaceOnUse" y2="410" xlink:type="simple" xlink:actuate="onLoad" id="linearGradient3" xlink:show="other" spreadMethod="pad">
<stop stop-opacity="1" stop-color="white" offset="0%"/>
<stop stop-opacity="1" stop-color="rgb(195,215,221)" offset="100%"/>
</linearGradient>
<linearGradient x1="744" x2="744" y1="339" gradientUnits="userSpaceOnUse" y2="442" xlink:type="simple" xlink:actuate="onLoad" id="linearGradient4" xlink:show="other" spreadMethod="pad">
<stop stop-opacity="1" stop-color="white" offset="0%"/>
<stop stop-opacity="1" stop-color="rgb(195,215,221)" offset="100%"/>
</linearGradient>
<linearGradient x1="318" x2="318" y1="570" gradientUnits="userSpaceOnUse" y2="673" xlink:type="simple" xlink:actuate="onLoad" id="linearGradient5" xlink:show="other" spreadMethod="pad">
<stop stop-opacity="1" stop-color="white" offset="0%"/>
<stop stop-opacity="1" stop-color="rgb(195,215,221)" offset="100%"/>
</linearGradient>
<clipPath clipPathUnits="userSpaceOnUse" id="clipPath1">
<path d="M120 79 L120 181 L341 181 L341 79 Z"/>
</clipPath>
<clipPath clipPathUnits="userSpaceOnUse" id="clipPath2">
<path d="M121 81 L343 81 L343 97 L121 97 L121 81 Z"/>
</clipPath>
<clipPath clipPathUnits="userSpaceOnUse" id="clipPath3">
<path d="M120 96 L343 96 L343 114 L120 114 L120 96 Z"/>
</clipPath>
<clipPath clipPathUnits="userSpaceOnUse" id="clipPath4">
<path d="M224 97 L258 97 L258 113 L224 113 L224 97 Z"/>
</clipPath>
<clipPath clipPathUnits="userSpaceOnUse" id="clipPath5">
<path d="M120 113 L343 113 L343 137 L120 137 L120 113 Z"/>
</clipPath>
<clipPath clipPathUnits="userSpaceOnUse" id="clipPath6">
<path d="M120 136 L343 136 L343 160 L120 160 L120 136 Z"/>
</clipPath>
<clipPath clipPathUnits="userSpaceOnUse" id="clipPath7">
<path d="M120 159 L343 159 L343 183 L120 183 L120 159 Z"/>
</clipPath>
<clipPath clipPathUnits="userSpaceOnUse" id="clipPath8">
<path d="M119 78 L343 78 L343 183 L119 183 L119 78 Z"/>
</clipPath>
<clipPath clipPathUnits="userSpaceOnUse" id="clipPath9">
<path d="M672 95 L672 197 L771 197 L771 95 Z"/>
</clipPath>
<clipPath clipPathUnits="userSpaceOnUse" id="clipPath10">
<path d="M695 97 L750 97 L750 113 L695 113 L695 97 Z"/>
</clipPath>
<clipPath clipPathUnits="userSpaceOnUse" id="clipPath11">
<path d="M672 112 L773 112 L773 130 L672 130 L672 112 Z"/>
</clipPath>
<clipPath clipPathUnits="userSpaceOnUse" id="clipPath12">
<path d="M718 113 L746 113 L746 129 L718 129 L718 113 Z"/>
</clipPath>
<clipPath clipPathUnits="userSpaceOnUse" id="clipPath13">
<path d="M672 129 L773 129 L773 153 L672 153 L672 129 Z"/>
</clipPath>
<clipPath clipPathUnits="userSpaceOnUse" id="clipPath14">
<path d="M672 152 L773 152 L773 176 L672 176 L672 152 Z"/>
</clipPath>
<clipPath clipPathUnits="userSpaceOnUse" id="clipPath15">
<path d="M672 175 L773 175 L773 199 L672 199 L672 175 Z"/>
</clipPath>
<clipPath clipPathUnits="userSpaceOnUse" id="clipPath16">
<path d="M671 94 L773 94 L773 199 L671 199 L671 94 Z"/>
</clipPath>
<clipPath clipPathUnits="userSpaceOnUse" id="clipPath17">
<path d="M272 307 L272 409 L371 409 L371 307 Z"/>
</clipPath>
<clipPath clipPathUnits="userSpaceOnUse" id="clipPath18">
<path d="M295 309 L350 309 L350 325 L295 325 L295 309 Z"/>
</clipPath>
<clipPath clipPathUnits="userSpaceOnUse" id="clipPath19">
<path d="M272 324 L373 324 L373 342 L272 342 L272 324 Z"/>
</clipPath>
<clipPath clipPathUnits="userSpaceOnUse" id="clipPath20">
<path d="M315 325 L350 325 L350 341 L315 341 L315 325 Z"/>
</clipPath>
<clipPath clipPathUnits="userSpaceOnUse" id="clipPath21">
<path d="M272 341 L373 341 L373 365 L272 365 L272 341 Z"/>
</clipPath>
<clipPath clipPathUnits="userSpaceOnUse" id="clipPath22">
<path d="M272 364 L373 364 L373 388 L272 388 L272 364 Z"/>
</clipPath>
<clipPath clipPathUnits="userSpaceOnUse" id="clipPath23">
<path d="M272 387 L373 387 L373 411 L272 411 L272 387 Z"/>
</clipPath>
<clipPath clipPathUnits="userSpaceOnUse" id="clipPath24">
<path d="M271 306 L373 306 L373 411 L271 411 L271 306 Z"/>
</clipPath>
<clipPath clipPathUnits="userSpaceOnUse" id="clipPath25">
<path d="M744 339 L744 441 L874 441 L874 339 Z"/>
</clipPath>
<clipPath clipPathUnits="userSpaceOnUse" id="clipPath26">
<path d="M783 341 L838 341 L838 357 L783 357 L783 341 Z"/>
</clipPath>
<clipPath clipPathUnits="userSpaceOnUse" id="clipPath27">
<path d="M744 356 L876 356 L876 374 L744 374 L744 356 Z"/>
</clipPath>
<clipPath clipPathUnits="userSpaceOnUse" id="clipPath28">
<path d="M764 357 L876 357 L876 373 L764 373 L764 357 Z"/>
</clipPath>
<clipPath clipPathUnits="userSpaceOnUse" id="clipPath29">
<path d="M744 373 L876 373 L876 397 L744 397 L744 373 Z"/>
</clipPath>
<clipPath clipPathUnits="userSpaceOnUse" id="clipPath30">
<path d="M744 396 L876 396 L876 420 L744 420 L744 396 Z"/>
</clipPath>
<clipPath clipPathUnits="userSpaceOnUse" id="clipPath31">
<path d="M744 419 L876 419 L876 443 L744 443 L744 419 Z"/>
</clipPath>
<clipPath clipPathUnits="userSpaceOnUse" id="clipPath32">
<path d="M743 338 L876 338 L876 443 L743 443 L743 338 Z"/>
</clipPath>
<clipPath clipPathUnits="userSpaceOnUse" id="clipPath33">
<path d="M318 570 L318 672 L469 672 L469 570 Z"/>
</clipPath>
<clipPath clipPathUnits="userSpaceOnUse" id="clipPath34">
<path d="M362 572 L428 572 L428 588 L362 588 L362 572 Z"/>
</clipPath>
<clipPath clipPathUnits="userSpaceOnUse" id="clipPath35">
<path d="M318 587 L471 587 L471 605 L318 605 L318 587 Z"/>
</clipPath>
<clipPath clipPathUnits="userSpaceOnUse" id="clipPath36">
<path d="M338 588 L471 588 L471 604 L338 604 L338 588 Z"/>
</clipPath>
<clipPath clipPathUnits="userSpaceOnUse" id="clipPath37">
<path d="M318 604 L471 604 L471 628 L318 628 L318 604 Z"/>
</clipPath>
<clipPath clipPathUnits="userSpaceOnUse" id="clipPath38">
<path d="M318 627 L471 627 L471 651 L318 651 L318 627 Z"/>
</clipPath>
<clipPath clipPathUnits="userSpaceOnUse" id="clipPath39">
<path d="M318 650 L471 650 L471 674 L318 674 L318 650 Z"/>
</clipPath>
<clipPath clipPathUnits="userSpaceOnUse" id="clipPath40">
<path d="M317 569 L471 569 L471 674 L317 674 L317 569 Z"/>
</clipPath>
<clipPath clipPathUnits="userSpaceOnUse" id="clipPath41">
<path d="M-1 -1 L886 -1 L886 684 L-1 684 L-1 -1 Z"/>
</clipPath>
<clipPath clipPathUnits="userSpaceOnUse" id="clipPath42">
<path d="M367 99 L419 99 L419 115 L367 115 L367 99 Z"/>
</clipPath>
<clipPath clipPathUnits="userSpaceOnUse" id="clipPath43">
<path d="M599 151 L643 151 L643 167 L599 167 L599 151 Z"/>
</clipPath>
<clipPath clipPathUnits="userSpaceOnUse" id="clipPath44">
<path d="M384 137 L398 137 L398 153 L384 153 L384 137 Z"/>
</clipPath>
<clipPath clipPathUnits="userSpaceOnUse" id="clipPath45">
<path d="M608 113 L638 113 L638 129 L608 129 L608 113 Z"/>
</clipPath>
<clipPath clipPathUnits="userSpaceOnUse" id="clipPath46">
<path d="M653 135 L674 135 L674 150 L653 150 L653 135 Z"/>
</clipPath>
<clipPath clipPathUnits="userSpaceOnUse" id="clipPath47">
<path d="M406 297 L457 297 L457 313 L406 313 L406 297 Z"/>
</clipPath>
<clipPath clipPathUnits="userSpaceOnUse" id="clipPath48">
<path d="M620 384 L750 384 L750 400 L620 400 L620 384 Z"/>
</clipPath>
<clipPath clipPathUnits="userSpaceOnUse" id="clipPath49">
<path d="M418 335 L432 335 L432 351 L418 351 L418 335 Z"/>
</clipPath>
<clipPath clipPathUnits="userSpaceOnUse" id="clipPath50">
<path d="M676 346 L706 346 L706 362 L676 362 L676 346 Z"/>
</clipPath>
<clipPath clipPathUnits="userSpaceOnUse" id="clipPath51">
<path d="M724 373 L746 373 L746 388 L724 388 L724 373 Z"/>
</clipPath>
<clipPath clipPathUnits="userSpaceOnUse" id="clipPath52">
<path d="M345 421 L396 421 L396 437 L345 437 L345 421 Z"/>
</clipPath>
<clipPath clipPathUnits="userSpaceOnUse" id="clipPath53">
<path d="M291 543 L442 543 L442 559 L291 559 L291 543 Z"/>
</clipPath>
<clipPath clipPathUnits="userSpaceOnUse" id="clipPath54">
<path d="M325 431 L339 431 L339 447 L325 447 L325 431 Z"/>
</clipPath>
<clipPath clipPathUnits="userSpaceOnUse" id="clipPath55">
<path d="M389 533 L419 533 L419 549 L389 549 L389 533 Z"/>
</clipPath>
<clipPath clipPathUnits="userSpaceOnUse" id="clipPath56">
<path d="M380 550 L396 550 L396 572 L380 572 L380 550 Z"/>
</clipPath>
</defs>
<g font-size="13" fill="url(#linearGradient1)" font-family="'Noto Sans'" stroke-linejoin="round" stroke="url(#linearGradient1)" stroke-width="0" stroke-miterlimit="0">
<rect x="120" y="79" clip-path="url(#clipPath1)" width="222" height="103" stroke="none"/>
</g>
<g stroke-miterlimit="0" stroke-width="0" stroke-linejoin="round">
<text xml:space="preserve" x="122" y="94" clip-path="url(#clipPath2)" stroke="none">«genericallyDependentContinuant»</text>
<image x="206" y="97" clip-path="url(#clipPath3)" width="16" xlink:href="data:image/png;base64,iVBORw0KGgoAAAANSUhEUgAAABAAAAAQCAYAAAAf8/9hAAAAr0lEQVR42mNkgIKC&#10;BUf+P3jyCchiBOL/QMgIYTFCREDg/38GOFCU4WWYkGDDyAITuP/4E8OkNDsGYkHu&#10;rINgGm7Av7//GNjZmIk2gOHff1QDwBxmJgZSAZoBjJQZwEqRC4BBzEqCC/6hh8H/&#10;//8YmJmIN+D/fyyB6NewCZwO/qORMIBIIUA2IyOmAUsrvIh2QUzndjBNeqjhiwWY&#10;qWQbsKTccwC9oKIkTJIXQOqpAgBzFjJ6SnHW0gAAAABJRU5ErkJggg==" xlink:type="simple" xlink:actuate="onLoad" height="16" preserveAspectRatio="none" xlink:show="embed"/>
<text xml:space="preserve" x="225" y="110" clip-path="url(#clipPath4)" stroke="none">gene</text>
</g>
<g stroke-width="1.1" font-size="13" font-family="'Noto Sans'" stroke-linecap="butt">
<line clip-path="url(#clipPath5)" fill="none" x1="120" x2="342" y1="114" y2="114"/>
<line clip-path="url(#clipPath6)" fill="none" x1="120" x2="342" y1="137" y2="137"/>
<line clip-path="url(#clipPath7)" fill="none" x1="120" x2="342" y1="160" y2="160"/>
<rect x="120" y="79" clip-path="url(#clipPath8)" fill="none" width="221" rx="0" ry="0" height="102"/>
<rect x="672" y="95" clip-path="url(#clipPath9)" fill="url(#linearGradient2)" width="100" height="103" stroke="none"/>
<text x="696" font-size="12" y="110" clip-path="url(#clipPath10)" font-family="'Dialog'" stroke="none" xml:space="preserve">«object»</text>
<image width="16" xlink:show="embed" xlink:type="simple" clip-path="url(#clipPath11)" preserveAspectRatio="none" height="16" font-family="'Dialog'" x="700" y="113" font-size="12" xlink:href="data:image/png;base64,iVBORw0KGgoAAAANSUhEUgAAABAAAAAQCAYAAAAf8/9hAAAAr0lEQVR42mNkgIKC&#10;BUf+P3jyCchiBOL/QMgIYTFCREDg/38GOFCU4WWYkGDDyAITuP/4E8OkNDsGYkHu&#10;rINgGm7Av7//GNjZmIk2gOHff1QDwBxmJgZSAZoBjJQZwEqRC4BBzEqCC/6hh8H/&#10;//8YmJmIN+D/fyyB6NewCZwO/qORMIBIIUA2IyOmAUsrvIh2QUzndjBNeqjhiwWY&#10;qWQbsKTccwC9oKIkTJIXQOqpAgBzFjJ6SnHW0gAAAABJRU5ErkJggg==" xlink:actuate="onLoad"/>
<text x="719" font-size="12" y="126" clip-path="url(#clipPath12)" font-family="'Dialog'" stroke="none" xml:space="preserve">DNA</text>
<line clip-path="url(#clipPath13)" fill="none" x1="672" x2="772" y1="130" y2="130"/>
<line clip-path="url(#clipPath14)" fill="none" x1="672" x2="772" y1="153" y2="153"/>
<line clip-path="url(#clipPath15)" fill="none" x1="672" x2="772" y1="176" y2="176"/>
<rect x="672" y="95" clip-path="url(#clipPath16)" fill="none" width="99" rx="0" ry="0" height="102"/>
<rect x="272" y="307" clip-path="url(#clipPath17)" fill="url(#linearGradient3)" width="100" height="103" stroke="none"/>
<text x="296" font-size="12" y="322" clip-path="url(#clipPath18)" font-family="'Dialog'" stroke="none" xml:space="preserve">«object»</text>
<image width="16" xlink:show="embed" xlink:type="simple" clip-path="url(#clipPath19)" preserveAspectRatio="none" height="16" font-family="'Dialog'" x="297" y="325" font-size="12" xlink:href="data:image/png;base64,iVBORw0KGgoAAAANSUhEUgAAABAAAAAQCAYAAAAf8/9hAAAAr0lEQVR42mNkgIKC&#10;BUf+P3jyCchiBOL/QMgIYTFCREDg/38GOFCU4WWYkGDDyAITuP/4E8OkNDsGYkHu&#10;rINgGm7Av7//GNjZmIk2gOHff1QDwBxmJgZSAZoBjJQZwEqRC4BBzEqCC/6hh8H/&#10;//8YmJmIN+D/fyyB6NewCZwO/qORMIBIIUA2IyOmAUsrvIh2QUzndjBNeqjhiwWY&#10;qWQbsKTccwC9oKIkTJIXQOqpAgBzFjJ6SnHW0gAAAABJRU5ErkJggg==" xlink:actuate="onLoad"/>
<text x="316" font-size="12" y="338" clip-path="url(#clipPath20)" font-family="'Dialog'" stroke="none" xml:space="preserve">cDNA</text>
<line clip-path="url(#clipPath21)" fill="none" x1="272" x2="372" y1="342" y2="342"/>
<line clip-path="url(#clipPath22)" fill="none" x1="272" x2="372" y1="365" y2="365"/>
<line clip-path="url(#clipPath23)" fill="none" x1="272" x2="372" y1="388" y2="388"/>
<rect x="272" y="307" clip-path="url(#clipPath24)" fill="none" width="99" rx="0" ry="0" height="102"/>
<rect x="744" y="339" clip-path="url(#clipPath25)" fill="url(#linearGradient4)" width="131" height="103" stroke="none"/>
<text x="784" font-size="12" y="354" clip-path="url(#clipPath26)" font-family="'Dialog'" stroke="none" xml:space="preserve">«object»</text>
<image width="16" xlink:show="embed" xlink:type="simple" clip-path="url(#clipPath27)" preserveAspectRatio="none" height="16" font-family="'Dialog'" x="746" y="357" font-size="12" xlink:href="data:image/png;base64,iVBORw0KGgoAAAANSUhEUgAAABAAAAAQCAYAAAAf8/9hAAAAr0lEQVR42mNkgIKC&#10;BUf+P3jyCchiBOL/QMgIYTFCREDg/38GOFCU4WWYkGDDyAITuP/4E8OkNDsGYkHu&#10;rINgGm7Av7//GNjZmIk2gOHff1QDwBxmJgZSAZoBjJQZwEqRC4BBzEqCC/6hh8H/&#10;//8YmJmIN+D/fyyB6NewCZwO/qORMIBIIUA2IyOmAUsrvIh2QUzndjBNeqjhiwWY&#10;qWQbsKTccwC9oKIkTJIXQOqpAgBzFjJ6SnHW0gAAAABJRU5ErkJggg==" xlink:actuate="onLoad"/>
<text x="765" font-size="12" y="370" clip-path="url(#clipPath28)" font-family="'Dialog'" stroke="none" xml:space="preserve">mature transcript</text>
<line clip-path="url(#clipPath29)" fill="none" x1="744" x2="875" y1="374" y2="374"/>
<line clip-path="url(#clipPath30)" fill="none" x1="744" x2="875" y1="397" y2="397"/>
<line clip-path="url(#clipPath31)" fill="none" x1="744" x2="875" y1="420" y2="420"/>
<rect x="744" y="339" clip-path="url(#clipPath32)" fill="none" width="130" rx="0" ry="0" height="102"/>
<rect x="318" y="570" clip-path="url(#clipPath33)" fill="url(#linearGradient5)" width="152" height="103" stroke="none"/>
<text x="363" font-size="12" y="585" clip-path="url(#clipPath34)" font-family="'Dialog'" stroke="none" xml:space="preserve">«process»</text>
<image width="16" xlink:show="embed" xlink:type="simple" clip-path="url(#clipPath35)" preserveAspectRatio="none" height="16" font-family="'Dialog'" x="320" y="588" font-size="12" xlink:href="data:image/png;base64,iVBORw0KGgoAAAANSUhEUgAAABAAAAAQCAYAAAAf8/9hAAAAr0lEQVR42mNkgIKC&#10;BUf+P3jyCchiBOL/QMgIYTFCREDg/38GOFCU4WWYkGDDyAITuP/4E8OkNDsGYkHu&#10;rINgGm7Av7//GNjZmIk2gOHff1QDwBxmJgZSAZoBjJQZwEqRC4BBzEqCC/6hh8H/&#10;//8YmJmIN+D/fyyB6NewCZwO/qORMIBIIUA2IyOmAUsrvIh2QUzndjBNeqjhiwWY&#10;qWQbsKTccwC9oKIkTJIXQOqpAgBzFjJ6SnHW0gAAAABJRU5ErkJggg==" xlink:actuate="onLoad"/>
<text x="339" font-size="12" y="601" clip-path="url(#clipPath36)" font-family="'Dialog'" stroke="none" xml:space="preserve">reverse transcription</text>
<line clip-path="url(#clipPath37)" fill="none" x1="318" x2="470" y1="605" y2="605"/>
<line clip-path="url(#clipPath38)" fill="none" x1="318" x2="470" y1="628" y2="628"/>
<line clip-path="url(#clipPath39)" fill="none" x1="318" x2="470" y1="651" y2="651"/>
<rect x="318" y="570" clip-path="url(#clipPath40)" fill="none" width="151" rx="0" ry="0" height="102"/>
<line clip-path="url(#clipPath41)" fill="none" text-rendering="optimizeLegibility" x1="342" x2="672" y1="123" y2="143"/>
<text x="368" font-size="12" y="112" clip-path="url(#clipPath42)" text-rendering="optimizeLegibility" font-family="'Dialog'" stroke="none" xml:space="preserve"> + gene</text>
<text x="600" font-size="12" y="164" clip-path="url(#clipPath43)" text-rendering="optimizeLegibility" font-family="'Dialog'" stroke="none" xml:space="preserve"> + dna</text>
<text x="385" font-size="12" y="150" clip-path="url(#clipPath44)" text-rendering="optimizeLegibility" font-family="'Dialog'" stroke="none" xml:space="preserve"> 1</text>
<text x="609" font-size="12" y="126" clip-path="url(#clipPath45)" text-rendering="optimizeLegibility" font-family="'Dialog'" stroke="none" xml:space="preserve"> 0..1</text>
<polygon text-rendering="optimizeLegibility" clip-path="url(#clipPath46)" points=" 672 144 670 146 668 146 666 144 666 143 654 148 666 143 654 136 666 143 666 142 668 140 670 140 672 142" stroke="none"/>
<polygon fill="none" text-rendering="optimizeLegibility" clip-path="url(#clipPath46)" points=" 672 144 670 146 668 146 666 144 666 143 654 148 666 143 654 136 666 143 666 142 668 140 670 140 672 142"/>
<line clip-path="url(#clipPath41)" fill="none" text-rendering="optimizeLegibility" x1="372" x2="744" y1="314" y2="383"/>
<text x="407" font-size="12" y="310" clip-path="url(#clipPath47)" text-rendering="optimizeLegibility" font-family="'Dialog'" stroke="none" xml:space="preserve"> + cdna</text>
<text x="621" font-size="12" y="397" clip-path="url(#clipPath48)" text-rendering="optimizeLegibility" font-family="'Dialog'" stroke="none" xml:space="preserve"> + mature transcript</text>
<text x="419" font-size="12" y="348" clip-path="url(#clipPath49)" text-rendering="optimizeLegibility" font-family="'Dialog'" stroke="none" xml:space="preserve"> 1</text>
<text x="677" font-size="12" y="359" clip-path="url(#clipPath50)" text-rendering="optimizeLegibility" font-family="'Dialog'" stroke="none" xml:space="preserve"> 0..1</text>
<polygon text-rendering="optimizeLegibility" clip-path="url(#clipPath51)" points=" 744 384 741 386 740 385 738 383 738 382 725 386 738 382 727 374 738 382 738 381 741 379 743 380 744 382" stroke="none"/>
<polygon fill="none" text-rendering="optimizeLegibility" clip-path="url(#clipPath51)" points=" 744 384 741 386 740 385 738 383 738 382 725 386 738 382 727 374 738 382 738 381 741 379 743 380 744 382"/>
<line clip-path="url(#clipPath41)" fill="none" text-rendering="optimizeLegibility" x1="344" x2="392" y1="410" y2="570"/>
<text x="346" font-size="12" y="434" clip-path="url(#clipPath52)" text-rendering="optimizeLegibility" font-family="'Dialog'" stroke="none" xml:space="preserve"> + cdna</text>
<text x="292" font-size="12" y="556" clip-path="url(#clipPath53)" text-rendering="optimizeLegibility" font-family="'Dialog'" stroke="none" xml:space="preserve"> + reverse transcription</text>
<text x="326" font-size="12" y="444" clip-path="url(#clipPath54)" text-rendering="optimizeLegibility" font-family="'Dialog'" stroke="none" xml:space="preserve"> 1</text>
<text x="390" font-size="12" y="546" clip-path="url(#clipPath55)" text-rendering="optimizeLegibility" font-family="'Dialog'" stroke="none" xml:space="preserve"> 0..1</text>
<polygon text-rendering="optimizeLegibility" clip-path="url(#clipPath56)" points=" 391 570 389 569 388 567 389 565 390 564 381 554 390 564 393 551 390 564 391 564 394 565 394 567 393 570" stroke="none"/>
<polygon fill="none" text-rendering="optimizeLegibility" clip-path="url(#clipPath56)" points=" 391 570 389 569 388 567 389 565 390 564 381 554 390 564 393 551 390 564 391 564 394 565 394 567 393 570"/>
</g>
</g>
</svg>
