<?xml version="1.0" encoding="UTF-8"?><svg xmlns="http://www.w3.org/2000/svg" xmlns:xlink="http://www.w3.org/1999/xlink" stroke-dasharray="none" shape-rendering="auto" font-family="'Dialog'" width="753" text-rendering="auto" fill-opacity="1" contentScriptType="text/ecmascript" color-interpolation="auto" color-rendering="auto" preserveAspectRatio="xMidYMid meet" font-size="12" viewBox="0 0 753 644" fill="black" stroke="black" image-rendering="auto" stroke-miterlimit="10" zoomAndPan="magnify" version="1.0" stroke-linecap="square" stroke-linejoin="miter" contentStyleType="text/css" font-style="normal" height="644" stroke-width="1" stroke-dashoffset="0" font-weight="normal" stroke-opacity="1">
<!--Generated by the Batik Graphics2D SVG Generator-->
<defs id="genericDefs"/>
<g>
<defs id="defs1">
<linearGradient x1="353" x2="353" y1="353" gradientUnits="userSpaceOnUse" y2="414" xlink:type="simple" xlink:actuate="onLoad" id="linearGradient1" xlink:show="other" spreadMethod="pad">
<stop stop-opacity="1" stop-color="white" offset="0%"/>
<stop stop-opacity="1" stop-color="rgb(227,164,156)" offset="100%"/>
</linearGradient>
<linearGradient x1="343" x2="343" y1="233" gradientUnits="userSpaceOnUse" y2="294" xlink:type="simple" xlink:actuate="onLoad" id="linearGradient2" xlink:show="other" spreadMethod="pad">
<stop stop-opacity="1" stop-color="white" offset="0%"/>
<stop stop-opacity="1" stop-color="rgb(227,164,156)" offset="100%"/>
</linearGradient>
<linearGradient x1="353" x2="353" y1="453" gradientUnits="userSpaceOnUse" y2="514" xlink:type="simple" xlink:actuate="onLoad" id="linearGradient3" xlink:show="other" spreadMethod="pad">
<stop stop-opacity="1" stop-color="white" offset="0%"/>
<stop stop-opacity="1" stop-color="rgb(227,164,156)" offset="100%"/>
</linearGradient>
<linearGradient x1="253" x2="253" y1="573" gradientUnits="userSpaceOnUse" y2="634" xlink:type="simple" xlink:actuate="onLoad" id="linearGradient4" xlink:show="other" spreadMethod="pad">
<stop stop-opacity="1" stop-color="white" offset="0%"/>
<stop stop-opacity="1" stop-color="rgb(227,164,156)" offset="100%"/>
</linearGradient>
<linearGradient x1="473" x2="473" y1="573" gradientUnits="userSpaceOnUse" y2="634" xlink:type="simple" xlink:actuate="onLoad" id="linearGradient5" xlink:show="other" spreadMethod="pad">
<stop stop-opacity="1" stop-color="white" offset="0%"/>
<stop stop-opacity="1" stop-color="rgb(227,164,156)" offset="100%"/>
</linearGradient>
<linearGradient x1="340" x2="340" y1="133" gradientUnits="userSpaceOnUse" y2="194" xlink:type="simple" xlink:actuate="onLoad" id="linearGradient6" xlink:show="other" spreadMethod="pad">
<stop stop-opacity="1" stop-color="white" offset="0%"/>
<stop stop-opacity="1" stop-color="rgb(227,164,156)" offset="100%"/>
</linearGradient>
<clipPath clipPathUnits="userSpaceOnUse" id="clipPath1">
<path d="M353 353 L353 413 L513 413 L513 353 Z"/>
</clipPath>
<clipPath clipPathUnits="userSpaceOnUse" id="clipPath2">
<path d="M401 367 L467 367 L467 383 L401 383 L401 367 Z"/>
</clipPath>
<clipPath clipPathUnits="userSpaceOnUse" id="clipPath3">
<path d="M353 382 L515 382 L515 400 L353 400 L353 382 Z"/>
</clipPath>
<clipPath clipPathUnits="userSpaceOnUse" id="clipPath4">
<path d="M374 383 L513 383 L513 399 L374 399 L374 383 Z"/>
</clipPath>
<clipPath clipPathUnits="userSpaceOnUse" id="clipPath5">
<path d="M352 352 L515 352 L515 415 L352 415 L352 352 Z"/>
</clipPath>
<clipPath clipPathUnits="userSpaceOnUse" id="clipPath6">
<path d="M343 233 L343 293 L523 293 L523 233 Z"/>
</clipPath>
<clipPath clipPathUnits="userSpaceOnUse" id="clipPath7">
<path d="M401 247 L467 247 L467 263 L401 263 L401 247 Z"/>
</clipPath>
<clipPath clipPathUnits="userSpaceOnUse" id="clipPath8">
<path d="M343 262 L525 262 L525 280 L343 280 L343 262 Z"/>
</clipPath>
<clipPath clipPathUnits="userSpaceOnUse" id="clipPath9">
<path d="M366 263 L522 263 L522 279 L366 279 L366 263 Z"/>
</clipPath>
<clipPath clipPathUnits="userSpaceOnUse" id="clipPath10">
<path d="M342 232 L525 232 L525 295 L342 295 L342 232 Z"/>
</clipPath>
<clipPath clipPathUnits="userSpaceOnUse" id="clipPath11">
<path d="M353 453 L353 513 L513 513 L513 453 Z"/>
</clipPath>
<clipPath clipPathUnits="userSpaceOnUse" id="clipPath12">
<path d="M401 467 L467 467 L467 483 L401 483 L401 467 Z"/>
</clipPath>
<clipPath clipPathUnits="userSpaceOnUse" id="clipPath13">
<path d="M353 482 L515 482 L515 500 L353 500 L353 482 Z"/>
</clipPath>
<clipPath clipPathUnits="userSpaceOnUse" id="clipPath14">
<path d="M376 483 L512 483 L512 499 L376 499 L376 483 Z"/>
</clipPath>
<clipPath clipPathUnits="userSpaceOnUse" id="clipPath15">
<path d="M352 452 L515 452 L515 515 L352 515 L352 452 Z"/>
</clipPath>
<clipPath clipPathUnits="userSpaceOnUse" id="clipPath16">
<path d="M253 573 L253 633 L413 633 L413 573 Z"/>
</clipPath>
<clipPath clipPathUnits="userSpaceOnUse" id="clipPath17">
<path d="M301 587 L367 587 L367 603 L301 603 L301 587 Z"/>
</clipPath>
<clipPath clipPathUnits="userSpaceOnUse" id="clipPath18">
<path d="M253 602 L415 602 L415 620 L253 620 L253 602 Z"/>
</clipPath>
<clipPath clipPathUnits="userSpaceOnUse" id="clipPath19">
<path d="M272 603 L415 603 L415 619 L272 619 L272 603 Z"/>
</clipPath>
<clipPath clipPathUnits="userSpaceOnUse" id="clipPath20">
<path d="M252 572 L415 572 L415 635 L252 635 L252 572 Z"/>
</clipPath>
<clipPath clipPathUnits="userSpaceOnUse" id="clipPath21">
<path d="M473 573 L473 633 L633 633 L633 573 Z"/>
</clipPath>
<clipPath clipPathUnits="userSpaceOnUse" id="clipPath22">
<path d="M521 587 L587 587 L587 603 L521 603 L521 587 Z"/>
</clipPath>
<clipPath clipPathUnits="userSpaceOnUse" id="clipPath23">
<path d="M473 602 L635 602 L635 620 L473 620 L473 602 Z"/>
</clipPath>
<clipPath clipPathUnits="userSpaceOnUse" id="clipPath24">
<path d="M493 603 L634 603 L634 619 L493 619 L493 603 Z"/>
</clipPath>
<clipPath clipPathUnits="userSpaceOnUse" id="clipPath25">
<path d="M472 572 L635 572 L635 635 L472 635 L472 572 Z"/>
</clipPath>
<clipPath clipPathUnits="userSpaceOnUse" id="clipPath26">
<path d="M340 133 L340 193 L526 193 L526 133 Z"/>
</clipPath>
<clipPath clipPathUnits="userSpaceOnUse" id="clipPath27">
<path d="M401 147 L467 147 L467 163 L401 163 L401 147 Z"/>
</clipPath>
<clipPath clipPathUnits="userSpaceOnUse" id="clipPath28">
<path d="M340 162 L528 162 L528 180 L340 180 L340 162 Z"/>
</clipPath>
<clipPath clipPathUnits="userSpaceOnUse" id="clipPath29">
<path d="M363 163 L525 163 L525 179 L363 179 L363 163 Z"/>
</clipPath>
<clipPath clipPathUnits="userSpaceOnUse" id="clipPath30">
<path d="M339 132 L528 132 L528 195 L339 195 L339 132 Z"/>
</clipPath>
<clipPath clipPathUnits="userSpaceOnUse" id="clipPath31">
<path d="M-1 -1 L754 -1 L754 645 L-1 645 L-1 -1 Z"/>
</clipPath>
<clipPath clipPathUnits="userSpaceOnUse" id="clipPath32">
<path d="M442 212 L476 212 L476 228 L442 228 L442 212 Z"/>
</clipPath>
<clipPath clipPathUnits="userSpaceOnUse" id="clipPath33">
<path d="M424 193 L443 193 L443 206 L424 206 L424 193 Z"/>
</clipPath>
<clipPath clipPathUnits="userSpaceOnUse" id="clipPath34">
<path d="M357 522 L391 522 L391 538 L357 538 L357 522 Z"/>
</clipPath>
<clipPath clipPathUnits="userSpaceOnUse" id="clipPath35">
<path d="M424 513 L443 513 L443 526 L424 526 L424 513 Z"/>
</clipPath>
<clipPath clipPathUnits="userSpaceOnUse" id="clipPath36">
<path d="M462 427 L496 427 L496 443 L462 443 L462 427 Z"/>
</clipPath>
<clipPath clipPathUnits="userSpaceOnUse" id="clipPath37">
<path d="M424 413 L443 413 L443 426 L424 426 L424 413 Z"/>
</clipPath>
<clipPath clipPathUnits="userSpaceOnUse" id="clipPath38">
<path d="M457 522 L491 522 L491 538 L457 538 L457 522 Z"/>
</clipPath>
<clipPath clipPathUnits="userSpaceOnUse" id="clipPath39">
<path d="M462 312 L496 312 L496 328 L462 328 L462 312 Z"/>
</clipPath>
<clipPath clipPathUnits="userSpaceOnUse" id="clipPath40">
<path d="M424 293 L443 293 L443 306 L424 306 L424 293 Z"/>
</clipPath>
</defs>
<g font-size="13" fill="url(#linearGradient1)" font-family="'Noto Sans'" stroke-linejoin="round" stroke="url(#linearGradient1)" stroke-width="0" stroke-miterlimit="0">
<rect x="353" y="353" clip-path="url(#clipPath1)" width="161" height="61" stroke="none"/>
</g>
<g stroke-miterlimit="0" stroke-width="0" stroke-linejoin="round">
<text xml:space="preserve" x="402" y="380" clip-path="url(#clipPath2)" stroke="none">«process»</text>
<image x="354" y="383" clip-path="url(#clipPath3)" width="16" xlink:href="data:image/png;base64,iVBORw0KGgoAAAANSUhEUgAAABAAAAAQCAYAAAAf8/9hAAAAr0lEQVR42mNkgIKC&#10;BUf+P3jyCchiBOL/QMgIYTFCREDg/38GOFCU4WWYkGDDyAITuP/4E8OkNDsGYkHu&#10;rINgGm7Av7//GNjZmIk2gOHff1QDwBxmJgZSAZoBjJQZwEqRC4BBzEqCC/6hh8H/&#10;//8YmJmIN+D/fyyB6NewCZwO/qORMIBIIUA2IyOmAUsrvIh2QUzndjBNeqjhiwWY&#10;qWQbsKTccwC9oKIkTJIXQOqpAgBzFjJ6SnHW0gAAAABJRU5ErkJggg==" xlink:type="simple" xlink:actuate="onLoad" height="16" preserveAspectRatio="none" xlink:show="embed"/>
<text xml:space="preserve" x="375" y="396" clip-path="url(#clipPath4)" stroke="none">hybridization-based ...</text>
</g>
<g stroke-width="1.1" font-size="13" font-family="'Noto Sans'" stroke-linecap="butt">
<rect x="353" y="353" clip-path="url(#clipPath5)" fill="none" width="160" rx="0" ry="0" height="60"/>
<rect x="343" y="233" clip-path="url(#clipPath6)" fill="url(#linearGradient2)" width="181" height="61" stroke="none"/>
<text x="402" font-size="12" y="260" clip-path="url(#clipPath7)" font-family="'Dialog'" stroke="none" xml:space="preserve">«process»</text>
<image width="16" xlink:show="embed" xlink:type="simple" clip-path="url(#clipPath8)" preserveAspectRatio="none" height="16" font-family="'Dialog'" x="344" y="263" font-size="12" xlink:href="data:image/png;base64,iVBORw0KGgoAAAANSUhEUgAAABAAAAAQCAYAAAAf8/9hAAAAr0lEQVR42mNkgIKC&#10;BUf+P3jyCchiBOL/QMgIYTFCREDg/38GOFCU4WWYkGDDyAITuP/4E8OkNDsGYkHu&#10;rINgGm7Av7//GNjZmIk2gOHff1QDwBxmJgZSAZoBjJQZwEqRC4BBzEqCC/6hh8H/&#10;//8YmJmIN+D/fyyB6NewCZwO/qORMIBIIUA2IyOmAUsrvIh2QUzndjBNeqjhiwWY&#10;qWQbsKTccwC9oKIkTJIXQOqpAgBzFjJ6SnHW0gAAAABJRU5ErkJggg==" xlink:actuate="onLoad"/>
<text x="367" font-size="12" y="276" clip-path="url(#clipPath9)" font-family="'Dialog'" stroke="none" xml:space="preserve">gene expression meas...</text>
<rect x="343" y="233" clip-path="url(#clipPath10)" fill="none" width="180" rx="0" ry="0" height="60"/>
<rect x="353" y="453" clip-path="url(#clipPath11)" fill="url(#linearGradient3)" width="161" height="61" stroke="none"/>
<text x="402" font-size="12" y="480" clip-path="url(#clipPath12)" font-family="'Dialog'" stroke="none" xml:space="preserve">«process»</text>
<image width="16" xlink:show="embed" xlink:type="simple" clip-path="url(#clipPath13)" preserveAspectRatio="none" height="16" font-family="'Dialog'" x="354" y="483" font-size="12" xlink:href="data:image/png;base64,iVBORw0KGgoAAAANSUhEUgAAABAAAAAQCAYAAAAf8/9hAAAAr0lEQVR42mNkgIKC&#10;BUf+P3jyCchiBOL/QMgIYTFCREDg/38GOFCU4WWYkGDDyAITuP/4E8OkNDsGYkHu&#10;rINgGm7Av7//GNjZmIk2gOHff1QDwBxmJgZSAZoBjJQZwEqRC4BBzEqCC/6hh8H/&#10;//8YmJmIN+D/fyyB6NewCZwO/qORMIBIIUA2IyOmAUsrvIh2QUzndjBNeqjhiwWY&#10;qWQbsKTccwC9oKIkTJIXQOqpAgBzFjJ6SnHW0gAAAABJRU5ErkJggg==" xlink:actuate="onLoad"/>
<text x="377" font-size="12" y="496" clip-path="url(#clipPath14)" font-family="'Dialog'" stroke="none" xml:space="preserve">DNA microarray exp...</text>
<rect x="353" y="453" clip-path="url(#clipPath15)" fill="none" width="160" rx="0" ry="0" height="60"/>
<rect x="253" y="573" clip-path="url(#clipPath16)" fill="url(#linearGradient4)" width="161" height="61" stroke="none"/>
<text x="302" font-size="12" y="600" clip-path="url(#clipPath17)" font-family="'Dialog'" stroke="none" xml:space="preserve">«process»</text>
<image width="16" xlink:show="embed" xlink:type="simple" clip-path="url(#clipPath18)" preserveAspectRatio="none" height="16" font-family="'Dialog'" x="254" y="603" font-size="12" xlink:href="data:image/png;base64,iVBORw0KGgoAAAANSUhEUgAAABAAAAAQCAYAAAAf8/9hAAAAr0lEQVR42mNkgIKC&#10;BUf+P3jyCchiBOL/QMgIYTFCREDg/38GOFCU4WWYkGDDyAITuP/4E8OkNDsGYkHu&#10;rINgGm7Av7//GNjZmIk2gOHff1QDwBxmJgZSAZoBjJQZwEqRC4BBzEqCC/6hh8H/&#10;//8YmJmIN+D/fyyB6NewCZwO/qORMIBIIUA2IyOmAUsrvIh2QUzndjBNeqjhiwWY&#10;qWQbsKTccwC9oKIkTJIXQOqpAgBzFjJ6SnHW0gAAAABJRU5ErkJggg==" xlink:actuate="onLoad"/>
<text x="273" font-size="12" y="616" clip-path="url(#clipPath19)" font-family="'Dialog'" stroke="none" xml:space="preserve">one-color microarray...</text>
<rect x="253" y="573" clip-path="url(#clipPath20)" fill="none" width="160" rx="0" ry="0" height="60"/>
<rect x="473" y="573" clip-path="url(#clipPath21)" fill="url(#linearGradient5)" width="161" height="61" stroke="none"/>
<text x="522" font-size="12" y="600" clip-path="url(#clipPath22)" font-family="'Dialog'" stroke="none" xml:space="preserve">«process»</text>
<image width="16" xlink:show="embed" xlink:type="simple" clip-path="url(#clipPath23)" preserveAspectRatio="none" height="16" font-family="'Dialog'" x="474" y="603" font-size="12" xlink:href="data:image/png;base64,iVBORw0KGgoAAAANSUhEUgAAABAAAAAQCAYAAAAf8/9hAAAAr0lEQVR42mNkgIKC&#10;BUf+P3jyCchiBOL/QMgIYTFCREDg/38GOFCU4WWYkGDDyAITuP/4E8OkNDsGYkHu&#10;rINgGm7Av7//GNjZmIk2gOHff1QDwBxmJgZSAZoBjJQZwEqRC4BBzEqCC/6hh8H/&#10;//8YmJmIN+D/fyyB6NewCZwO/qORMIBIIUA2IyOmAUsrvIh2QUzndjBNeqjhiwWY&#10;qWQbsKTccwC9oKIkTJIXQOqpAgBzFjJ6SnHW0gAAAABJRU5ErkJggg==" xlink:actuate="onLoad"/>
<text x="494" font-size="12" y="616" clip-path="url(#clipPath24)" font-family="'Dialog'" stroke="none" xml:space="preserve">two-color microarray...</text>
<rect x="473" y="573" clip-path="url(#clipPath25)" fill="none" width="160" rx="0" ry="0" height="60"/>
<rect x="340" y="133" clip-path="url(#clipPath26)" fill="url(#linearGradient6)" width="187" height="61" stroke="none"/>
<text x="402" font-size="12" y="160" clip-path="url(#clipPath27)" font-family="'Dialog'" stroke="none" xml:space="preserve">«process»</text>
<image width="16" xlink:show="embed" xlink:type="simple" clip-path="url(#clipPath28)" preserveAspectRatio="none" height="16" font-family="'Dialog'" x="341" y="163" font-size="12" xlink:href="data:image/png;base64,iVBORw0KGgoAAAANSUhEUgAAABAAAAAQCAYAAAAf8/9hAAAAr0lEQVR42mNkgIKC&#10;BUf+P3jyCchiBOL/QMgIYTFCREDg/38GOFCU4WWYkGDDyAITuP/4E8OkNDsGYkHu&#10;rINgGm7Av7//GNjZmIk2gOHff1QDwBxmJgZSAZoBjJQZwEqRC4BBzEqCC/6hh8H/&#10;//8YmJmIN+D/fyyB6NewCZwO/qORMIBIIUA2IyOmAUsrvIh2QUzndjBNeqjhiwWY&#10;qWQbsKTccwC9oKIkTJIXQOqpAgBzFjJ6SnHW0gAAAABJRU5ErkJggg==" xlink:actuate="onLoad"/>
<text x="364" font-size="12" y="176" clip-path="url(#clipPath29)" font-family="'Dialog'" stroke="none" xml:space="preserve">biological experimental ...</text>
<rect x="340" y="133" clip-path="url(#clipPath30)" fill="none" width="186" rx="0" ry="0" height="60"/>
<line clip-path="url(#clipPath31)" fill="none" text-rendering="optimizeLegibility" x1="433" x2="433" y1="233" y2="223"/>
<line clip-path="url(#clipPath31)" fill="none" text-rendering="optimizeLegibility" x1="433" x2="433" y1="223" y2="223"/>
<line clip-path="url(#clipPath31)" fill="none" text-rendering="optimizeLegibility" x1="433" x2="433" y1="223" y2="194"/>
<text x="443" font-size="12" y="225" clip-path="url(#clipPath32)" text-rendering="optimizeLegibility" font-family="'Dialog'" stroke="none" xml:space="preserve">«IsA»</text>
</g>
<g fill="white" text-rendering="optimizeLegibility" stroke-width="1.1" stroke-linecap="butt" stroke="white">
<polygon clip-path="url(#clipPath33)" points=" 433 194 441 204 425 204" stroke="none"/>
<polygon fill="none" clip-path="url(#clipPath33)" points=" 433 194 441 204 425 204" stroke="black"/>
<line clip-path="url(#clipPath31)" fill="none" x1="303" x2="303" y1="573" y2="543" stroke="black"/>
<line clip-path="url(#clipPath31)" fill="none" x1="303" x2="433" y1="543" y2="543" stroke="black"/>
<line clip-path="url(#clipPath31)" fill="none" x1="433" x2="433" y1="543" y2="514" stroke="black"/>
<text x="358" y="535" clip-path="url(#clipPath34)" fill="black" stroke="none" xml:space="preserve">«IsA»</text>
<polygon clip-path="url(#clipPath35)" points=" 433 514 441 524 425 524" stroke="none"/>
<polygon fill="none" clip-path="url(#clipPath35)" points=" 433 514 441 524 425 524" stroke="black"/>
<line clip-path="url(#clipPath31)" fill="none" x1="433" x2="433" y1="453" y2="443" stroke="black"/>
<line clip-path="url(#clipPath31)" fill="none" x1="433" x2="433" y1="443" y2="443" stroke="black"/>
<line clip-path="url(#clipPath31)" fill="none" x1="433" x2="433" y1="443" y2="414" stroke="black"/>
<text x="463" y="440" clip-path="url(#clipPath36)" fill="black" stroke="none" xml:space="preserve">«IsA»</text>
<polygon clip-path="url(#clipPath37)" points=" 433 414 441 424 425 424" stroke="none"/>
<polygon fill="none" clip-path="url(#clipPath37)" points=" 433 414 441 424 425 424" stroke="black"/>
<line clip-path="url(#clipPath31)" fill="none" x1="543" x2="543" y1="573" y2="543" stroke="black"/>
<line clip-path="url(#clipPath31)" fill="none" x1="543" x2="433" y1="543" y2="543" stroke="black"/>
<line clip-path="url(#clipPath31)" fill="none" x1="433" x2="433" y1="543" y2="514" stroke="black"/>
<text x="458" y="535" clip-path="url(#clipPath38)" fill="black" stroke="none" xml:space="preserve">«IsA»</text>
<polygon clip-path="url(#clipPath35)" points=" 433 514 441 524 425 524" stroke="none"/>
<polygon fill="none" clip-path="url(#clipPath35)" points=" 433 514 441 524 425 524" stroke="black"/>
<line clip-path="url(#clipPath31)" fill="none" x1="433" x2="433" y1="353" y2="343" stroke="black"/>
<line clip-path="url(#clipPath31)" fill="none" x1="433" x2="433" y1="343" y2="343" stroke="black"/>
<line clip-path="url(#clipPath31)" fill="none" x1="433" x2="433" y1="343" y2="294" stroke="black"/>
<text x="463" y="325" clip-path="url(#clipPath39)" fill="black" stroke="none" xml:space="preserve">«IsA»</text>
<polygon clip-path="url(#clipPath40)" points=" 433 294 441 304 425 304" stroke="none"/>
<polygon fill="none" clip-path="url(#clipPath40)" points=" 433 294 441 304 425 304" stroke="black"/>
</g>
</g>
</svg>
